%YAML 1.1
%TAG !u! tag:unity3d.com,2011:
--- !u!114 &11400000
MonoBehaviour:
  m_ObjectHideFlags: 0
  m_CorrespondingSourceObject: {fileID: 0}
  m_PrefabInstance: {fileID: 0}
  m_PrefabAsset: {fileID: 0}
  m_GameObject: {fileID: 0}
  m_Enabled: 1
  m_EditorHideFlags: 0
  m_Script: {fileID: 11500000, guid: 22a7f58bfb534fe5981dc717584e6d5d, type: 3}
  m_Name: ConfigAnimations
  m_EditorClassIdentifier: 
  _cellsPunchScaleAnimationDuration: 0.6
  _cellsPunchScaleAnimationValue: 1.1
  _cellsColorAnimationDuration: 0.6
